\relax 
\providecommand\hyper@newdestlabel[2]{}
\providecommand\HyperFirstAtBeginDocument{\AtBeginDocument}
\HyperFirstAtBeginDocument{\ifx\hyper@anchor\@undefined
\global\let\oldcontentsline\contentsline
\gdef\contentsline#1#2#3#4{\oldcontentsline{#1}{#2}{#3}}
\global\let\oldnewlabel\newlabel
\gdef\newlabel#1#2{\newlabelxx{#1}#2}
\gdef\newlabelxx#1#2#3#4#5#6{\oldnewlabel{#1}{{#2}{#3}}}
\AtEndDocument{\ifx\hyper@anchor\@undefined
\let\contentsline\oldcontentsline
\let\newlabel\oldnewlabel
\fi}
\fi}
\global\let\hyper@last\relax 
\gdef\HyperFirstAtBeginDocument#1{#1}
\providecommand\HyField@AuxAddToFields[1]{}
\providecommand\HyField@AuxAddToCoFields[2]{}
\reset@newl@bel
\@writefile{toc}{\contentsline {chapter}{\numberline {1}Introduction}{1}{chapter.1}}
\@writefile{lof}{\addvspace {10\p@ }}
\@writefile{lot}{\addvspace {10\p@ }}
\@writefile{loa}{\addvspace {10\p@ }}
\newlabel{chap:introduction}{{1}{1}{Introduction}{chapter.1}{}}
\@writefile{toc}{\contentsline {section}{\numberline {1.1}Approach}{1}{section.1.1}}
\@writefile{toc}{\contentsline {section}{\numberline {1.2}Contributions}{1}{section.1.2}}
\@writefile{toc}{\contentsline {section}{\numberline {1.3}Organization}{1}{section.1.3}}
\citation{li2014review}
\citation{riberaestimating}
\citation{bangert2013field}
\citation{virlet2017field}
\citation{bangert2013field}
\citation{virlet2017field}
\citation{li2014review}
\citation{weiss2011plant}
\citation{zhang2013svm}
\citation{slaughter2008autonomous}
\citation{dey2012classification}
\citation{lehnert2017autonomous}
\citation{mccormick20163d}
\citation{chaivivatrakul2014automatic}
\citation{paulus2013surface}
\citation{chene2012use}
\@writefile{toc}{\contentsline {chapter}{\numberline {2}Background}{3}{chapter.2}}
\@writefile{lof}{\addvspace {10\p@ }}
\@writefile{lot}{\addvspace {10\p@ }}
\@writefile{loa}{\addvspace {10\p@ }}
\newlabel{chap:background}{{2}{3}{Background}{chapter.2}{}}
\@writefile{toc}{\contentsline {section}{\numberline {2.1}Related Work in Robotic High-Throughput Phenotyping Platforms}{3}{section.2.1}}
\@writefile{brf}{\backcite{li2014review}{{3}{2.1}{section.2.1}}}
\@writefile{brf}{\backcite{riberaestimating}{{3}{2.1}{section.2.1}}}
\@writefile{brf}{\backcite{bangert2013field}{{3}{2.1}{section.2.1}}}
\@writefile{brf}{\backcite{virlet2017field}{{3}{2.1}{section.2.1}}}
\@writefile{brf}{\backcite{bangert2013field}{{3}{2.1}{section.2.1}}}
\@writefile{brf}{\backcite{virlet2017field}{{3}{2.1}{section.2.1}}}
\@writefile{toc}{\contentsline {section}{\numberline {2.2}Related Work in Plant Imaging and Phenotype Estimation}{3}{section.2.2}}
\@writefile{brf}{\backcite{li2014review}{{3}{2.2}{section.2.2}}}
\citation{chene2012use}
\citation{chaivivatrakul2014automatic}
\citation{lehnert2017autonomous}
\citation{paulus2013surface}
\citation{dey2012classification}
\citation{paulus2013surface}
\citation{lehnert2017autonomous}
\citation{dey2012classification}
\citation{mccormick20163d}
\citation{riberaestimating}
\citation{riberaestimating}
\citation{mccormick20163d}
\@writefile{brf}{\backcite{weiss2011plant}{{4}{2.2}{section.2.2}}}
\@writefile{brf}{\backcite{zhang2013svm}{{4}{2.2}{section.2.2}}}
\@writefile{brf}{\backcite{slaughter2008autonomous}{{4}{2.2}{section.2.2}}}
\@writefile{brf}{\backcite{dey2012classification}{{4}{2.2}{section.2.2}}}
\@writefile{brf}{\backcite{lehnert2017autonomous}{{4}{2.2}{section.2.2}}}
\@writefile{brf}{\backcite{mccormick20163d}{{4}{2.2}{section.2.2}}}
\@writefile{brf}{\backcite{chaivivatrakul2014automatic}{{4}{2.2}{section.2.2}}}
\@writefile{brf}{\backcite{paulus2013surface}{{4}{2.2}{section.2.2}}}
\@writefile{brf}{\backcite{chene2012use}{{4}{2.2}{section.2.2}}}
\@writefile{brf}{\backcite{chene2012use}{{4}{2.2}{section.2.2}}}
\@writefile{brf}{\backcite{chaivivatrakul2014automatic}{{4}{2.2}{section.2.2}}}
\@writefile{brf}{\backcite{lehnert2017autonomous}{{4}{2.2}{section.2.2}}}
\@writefile{brf}{\backcite{paulus2013surface}{{4}{2.2}{section.2.2}}}
\@writefile{brf}{\backcite{dey2012classification}{{4}{2.2}{section.2.2}}}
\@writefile{brf}{\backcite{paulus2013surface}{{4}{2.2}{section.2.2}}}
\@writefile{brf}{\backcite{lehnert2017autonomous}{{4}{2.2}{section.2.2}}}
\@writefile{brf}{\backcite{dey2012classification}{{4}{2.2}{section.2.2}}}
\@writefile{brf}{\backcite{mccormick20163d}{{4}{2.2}{section.2.2}}}
\@writefile{brf}{\backcite{riberaestimating}{{4}{2.2}{section.2.2}}}
\@writefile{brf}{\backcite{riberaestimating}{{4}{2.2}{section.2.2}}}
\@writefile{brf}{\backcite{mccormick20163d}{{4}{2.2}{section.2.2}}}
\@writefile{toc}{\contentsline {chapter}{\numberline {3}Multi-view 3D Reconstruction of Sorghum​ Plants}{5}{chapter.3}}
\@writefile{lof}{\addvspace {10\p@ }}
\@writefile{lot}{\addvspace {10\p@ }}
\@writefile{loa}{\addvspace {10\p@ }}
\newlabel{chap:reconstruction3D}{{3}{5}{Multi-view 3D Reconstruction of Sorghum​ Plants}{chapter.3}{}}
\@writefile{toc}{\contentsline {section}{\numberline {3.1}3D Reconstruction in Indoor Environments}{5}{section.3.1}}
\@writefile{toc}{\contentsline {section}{\numberline {3.2}3D Reconstruction in Field Environments}{5}{section.3.2}}
\@writefile{toc}{\contentsline {chapter}{\numberline {4}Segmentation and Identification of Plant Structures}{7}{chapter.4}}
\@writefile{lof}{\addvspace {10\p@ }}
\@writefile{lot}{\addvspace {10\p@ }}
\@writefile{loa}{\addvspace {10\p@ }}
\newlabel{chap:segmentation}{{4}{7}{Segmentation and Identification of Plant Structures}{chapter.4}{}}
\@writefile{toc}{\contentsline {section}{\numberline {4.1}Semantic Segmentation of 3D Point Clouds of Plants}{7}{section.4.1}}
\@writefile{toc}{\contentsline {subsection}{\numberline {4.1.1}Local feature extraction}{7}{subsection.4.1.1}}
\@writefile{toc}{\contentsline {subsection}{\numberline {4.1.2}Global feature extraction}{7}{subsection.4.1.2}}
\@writefile{toc}{\contentsline {subsection}{\numberline {4.1.3}Support Vector Machine (SVM) Classifier}{7}{subsection.4.1.3}}
\@writefile{toc}{\contentsline {section}{\numberline {4.2}Spatial Smoothing of 3D Point Clouds of Plants}{7}{section.4.2}}
\@writefile{toc}{\contentsline {section}{\numberline {4.3}Extraction of Plant Phytomers}{7}{section.4.3}}
\@writefile{toc}{\contentsline {chapter}{\numberline {5}Plant Phenotyping}{9}{chapter.5}}
\@writefile{lof}{\addvspace {10\p@ }}
\@writefile{lot}{\addvspace {10\p@ }}
\@writefile{loa}{\addvspace {10\p@ }}
\newlabel{chap:phenotyping}{{5}{9}{Plant Phenotyping}{chapter.5}{}}
\@writefile{toc}{\contentsline {section}{\numberline {5.1}Phenotyping using Computational Geometry methods}{9}{section.5.1}}
\@writefile{toc}{\contentsline {subsection}{\numberline {5.1.1}Stem Diameter}{9}{subsection.5.1.1}}
\@writefile{toc}{\contentsline {subsection}{\numberline {5.1.2}Leaf Area}{9}{subsection.5.1.2}}
\@writefile{toc}{\contentsline {subsection}{\numberline {5.1.3}Leaf Length and Width}{9}{subsection.5.1.3}}
\@writefile{toc}{\contentsline {section}{\numberline {5.2}Phenotyping using Generative Models}{9}{section.5.2}}
\@writefile{toc}{\contentsline {chapter}{\numberline {6}Conclusions}{11}{chapter.6}}
\@writefile{lof}{\addvspace {10\p@ }}
\@writefile{lot}{\addvspace {10\p@ }}
\@writefile{loa}{\addvspace {10\p@ }}
\newlabel{chap:conclusions}{{6}{11}{Conclusions}{chapter.6}{}}
\@writefile{toc}{\contentsline {section}{\numberline {6.1}Contributions}{11}{section.6.1}}
\@writefile{toc}{\contentsline {section}{\numberline {6.2}Future Work}{11}{section.6.2}}
\bibstyle{unsrt}
\bibdata{../bibmsthesis}
\bibcite{li2014review}{{1}{}{{}}{{}}}
\bibcite{riberaestimating}{{2}{}{{}}{{}}}
\bibcite{bangert2013field}{{3}{}{{}}{{}}}
\bibcite{virlet2017field}{{4}{}{{}}{{}}}
\bibcite{weiss2011plant}{{5}{}{{}}{{}}}
\bibcite{zhang2013svm}{{6}{}{{}}{{}}}
\bibcite{slaughter2008autonomous}{{7}{}{{}}{{}}}
\bibcite{dey2012classification}{{8}{}{{}}{{}}}
\bibcite{lehnert2017autonomous}{{9}{}{{}}{{}}}
\bibcite{mccormick20163d}{{10}{}{{}}{{}}}
\bibcite{chaivivatrakul2014automatic}{{11}{}{{}}{{}}}
\bibcite{paulus2013surface}{{12}{}{{}}{{}}}
\@writefile{toc}{\contentsline {chapter}{Bibliography}{13}{chapter*.2}}
\@writefile{lof}{\addvspace {10\p@ }}
\@writefile{lot}{\addvspace {10\p@ }}
\@writefile{loa}{\addvspace {10\p@ }}
\bibcite{chene2012use}{{13}{}{{}}{{}}}
\providecommand\NAT@force@numbers{}\NAT@force@numbers
